Donald Trump May Win His Re-election Campaign?
…
In our case the intention to vote Trump is the response variable, there are three predictors: age, sex and race, people grouped by these predictors, the extent of their influence we could say, vary on different level.

First we look at the linear regression model built based on survey data 2020, using lm() function(Wickham et al. (2019)), at the individual level, there is no specific large VIF(variance inflation factor) values, which indicates that there is no obvious correlation between any two predictors. (used vif()function Fox and Weisberg (2019))

##               GVIF Df GVIF^(1/(2*Df))
## age_group 1.075793  6        1.006107
## sex       1.038100  1        1.018872
## race      1.077028  3        1.012444

Then by looking at the model summary, the evidently small p-values of nearly each variable of each group indicates that the estimates of the parameters are significant and relations between the predictors and the response variable cannot be ignored.

The individual-level linear regression model is fairly fitted, then we directly apply this trained model to the census dataset (ACS 2018)(Rohan Alexander (2020)), when it moves to a higher level, considering state the voter lives in and voters are grouped. For the data that is nearly a census, the ACS 2018 data, we first calculate the number of voters in each possible group combined by state, age group, sex and race, then using the model we could obtain predicted probability for each group, since different group takes different percentage in each state, by calculating the weight of each group and its product with the predicted probability, we can get a states predicted probability by adding all of the products.

## # A tibble: 51 x 2
##    state predict_prob
##    <chr>        <dbl>
##  1 AK           0.426
##  2 AL           0.433
##  3 AR           0.464
##  4 AZ           0.479
##  5 CA           0.445
##  6 CO           0.475
##  7 CT           0.449
##  8 DC           0.409
##  9 DE           0.413
## 10 FL           0.468
## #  with 41 more rows
…
